<?xml version="1.0" standalone="no"?>
<!DOCTYPE svg PUBLIC "-//W3C//DTD SVG 1.1//EN" "http://www.w3.org/Graphics/SVG/1.1/DTD/svg11.dtd">
<svg xmlns="http://www.w3.org/2000/svg">
<metadata>Copyright (C) 2016 by original authors @ fontello.com</metadata>
<defs>
<font id="fontello" horiz-adv-x="1000" >
<font-face font-family="fontello" font-weight="400" font-stretch="normal" units-per-em="1000" ascent="850" descent="-150" />
<missing-glyph horiz-adv-x="1000" />
<glyph glyph-name="utepsa-icon" unicode="&#xe800;" d="M205 499c-16 63-33 123-47 184-4 15 1 32 2 48 14-3 30-2 43-9 43-23 86-47 129-72 19-11 26-5 34 17 20 55 43 110 66 164 4 8 13 19 20 19 7 0 17-11 20-19 23-54 45-107 65-162 9-27 20-30 41-16 41 25 83 50 125 72 12 6 29 9 40 3 6-3 7-27 4-40-14-63-31-124-48-191 28-8 55-16 83-24 28-8 57-14 85-24 13-5 24-17 35-25-8-12-14-26-24-34-40-31-80-60-120-90-8-6-15-13-25-21 35-53 68-104 100-157 7-11 9-27 13-40-13-5-27-13-39-12-48 4-96 10-144 18-20 3-29-4-30-27-2-53-6-105-9-158-1-11-1-22-4-32-7-24-20-28-36-10-35 40-70 81-104 121-27 33-27 33-53 2-33-38-65-77-98-114-8-9-21-13-31-19-6 13-14 26-16 40-5 54-7 109-11 164 0 10-2 21-3 35-51-6-98-14-146-18-22-2-54-18-63 12-5 17 13 45 26 64 27 44 57 86 88 132-42 31-81 61-121 91-12 9-25 18-36 28-7 7-15 18-13 26 1 8 12 17 20 20 53 16 108 31 162 47 6 2 12 4 20 7z m511-351c2 1 16 2 19 9 3 6-3 20-8 28-19 32-39 63-60 93-11 16-9 27 6 38 29 20 58 41 86 64 7 5 11 16 16 25-8 5-15 13-24 15-32 11-64 20-97 28-22 5-24 16-18 37 9 34 19 69 27 104 2 11 0 23-1 34-10-2-21-2-30-7-28-14-56-27-82-45-23-16-32-7-41 17-12 33-24 65-37 96-5 10-14 17-21 25-6-8-14-15-17-24-15-33-28-67-40-102-8-21-17-26-36-14-29 18-59 34-89 50-8 4-18 2-28 3 0-10-2-20 0-28 8-36 17-72 28-107 6-23 3-35-20-40-32-7-63-16-94-26-10-3-17-12-26-18 6-8 11-19 18-24 26-21 51-41 78-59 21-13 26-25 9-48-20-27-38-56-55-85-6-9-7-21-11-31 10-3 21-7 31-6 31 2 62 5 93 11 25 4 32-8 33-32 1-37 3-74 6-111 1-9 7-17 10-25 8 4 17 6 22 12 25 27 49 55 71 84 13 16 23 16 36 0 23-29 47-56 71-83 6-7 15-9 22-13 4 8 9 16 10 25 3 38 5 76 7 115 1 21 8 31 29 28 33-5 67-8 107-13z m-141 207c0 28-2 56 0 85 2 33-17 33-38 33-21 0-38 0-37-34 2-53 1-107 0-160 0-38-14-54-45-55-33 0-50 18-50 58 0 52-1 105 1 157 1 32-15 35-38 34-20-1-39 2-38-33 1-55 0-111 1-167 0-54 26-94 74-103 32-7 66-6 98 0 45 10 70 48 71 99 1 29 1 57 1 86z" horiz-adv-x="900" />
</font>
</defs>
</svg>